<?xml version="1.0" encoding="utf-8"?>
<!-- Generator: Adobe Illustrator 21.1.0, SVG Export Plug-In . SVG Version: 6.00 Build 0)  -->
<svg version="1.1" id="Layer_1" xmlns="http://www.w3.org/2000/svg" xmlns:xlink="http://www.w3.org/1999/xlink" x="0px" y="0px"
	 viewBox="0 0 131 109.1" style="enable-background:new 0 0 131 109.1;" xml:space="preserve">
<style type="text/css">
	.st0{fill:#666666;}
</style>
<g>
	<rect x="-235" class="st0" width="131" height="10.2"/>
</g>
<g>
	<rect x="-235" y="32.9" class="st0" width="131" height="10.2"/>
</g>
<g>
	<rect x="-235" y="65.9" class="st0" width="131" height="10.2"/>
</g>
<g>
	<rect x="-235" y="98.8" class="st0" width="131" height="10.2"/>
</g>
<rect x="229.8" y="14.5" class="st0" width="13.2" height="80"/>
<rect x="25.4" y="47.9" class="st0" width="80" height="13.2"/>
</svg>
